…
```{R}
prog_book %>% mutate(Price/Number_Of_Pages) %>% filter(`Price/Number_Of_Pages`<0.1) %>%
  filter(Rating>4)
```
Result:
```{R}
# A tibble: 68 × 8
   Rating Reviews Book_title    Description    Number_Of_Pages Type  Price `Price/Number_O…
    <dbl>   <dbl> <chr>         <chr>                    <dbl> <chr> <dbl>            <dbl>
 1   4.17    3829 The Elements… "This style m…             105 Hard…  9.32           0.0888
 2   4.01    1406 The Informat… "James Gleick…             527 Hard… 11              0.0209
 3   4.06    1325 How Google W… "Both Eric Sc…             305 Kind… 13.2            0.0432
 4   4.09    5938 Start with W… "Why do you d…             256 Hard… 14.2            0.0556
 5   4.15    1817 Algorithms t… "A fascinatin…             368 Hard… 14.4            0.0390
 6   4.03     160 Sync: The Em… "At the heart…             352 Hard… 15.2            0.0433
 7   4.1     2092 The Innovato… "The computer…             542 Hard… 17.2            0.0318
 8   4.22      27 Debugging: T… "When the pre…             192 Pape… 17.5            0.0911
 9   4.21      16 Help Your Ki… "Take your ki…             224 Pape… 18.9            0.0845
10   4.28    1268 The Code Boo… "In his first…             412 Pape… 19.1            0.0464
# … with 58 more rows
```
…
